{
  "version": "1.0.0-*",

  "dependencies": {
    "Microsoft.Extensions.Logging.Debug": "1.1.0",
    "NETStandard.Library": "1.6.1",
    "Newtonsoft.Json": "10.0.3",
    "System.Net.Requests": "4.3.0",
    "System.Threading.Tasks": "4.3.0",
    "System.Threading.Thread": "4.0.0"
  },

  "frameworks": {
    "netstandard1.6": {
      "imports": "dnxcore50"
    }
  }
}
